<?xml version="1.0" encoding="UTF-8" ?>

<!DOCTYPE sqlMap
    PUBLIC "-//iBATIS.com//DTD SQL Map 2.0//EN"
    "http://ibatis.apache.org/dtd/sql-map-2.dtd">

<sqlMap namespace="mg.log">

	<!-- 로그 서버 정보  --> 
	<select id="getLogInfo" parameterClass="map" resultClass="outmap">
		select A.SVR_ID,
			A.SVR_NM,
			A.FILE_LOG_PATH,
			A.PRN_LOG_PATH,
			A.ATTH_LOG_PATH,
			A.LOG_UP_URL,
			A.PRN_UP_URL,
			A.LOG_SERVICE_URL,
			B.LOG_COLLECT_YN
		from CP_SVR_INFO A INNER JOIN CP_USER_INFO B ON A.SVR_ID = B.SVR_ID
		where B.USER_ID = #id#
	</select>
	
		<!-- 로그 환경 정보  --> 
	<select id="getLogConfig" parameterClass="map" resultClass="outmap">
		SELECT CONFIG_KEY,CONFIG_VAL
		FROM CP_CONFIG 
		WHERE SYSTEM_CD = #system_cd#
	</select>
	
</sqlMap>